[
    {
        "projects": [
            {
                "id": 29979647,
                "name": "gitlab-dashboard",
                "http_url_to_repo": "https://gitlab.com/bkayranci/gitlab-dashboard.git",
                "path": "gitlab-dashboard",
                "token": "",
                "enabled": true
            }
        ],
        "name": "default",
        "id": "turkalp"
    }
]